{
  "$schema": "https://developer.microsoft.com/json-schemas/spfx-build/write-manifests.schema.json",
  "cdnBasePath": "https://publiccdn.sharepointonline.com/kagill.sharepoint.com/sites/UCCIntranetDev/SiteAssets/uccMyLinks"
}
